SSE0_VSG-subtypes_JSo
…
The output from the cd-hit-est run is .clstr file. Using the .clstr file and the concat_RESULTS.txt file, I ran MatchVSG.py (written by Jaclyn Smith). This script provided a cluster reference table .txt file containing a narrowed-down list of VSG-seq identified VSGs with an arbitrarily assigned cluster number.

Load the cluster reference table (first column contains VSGs non-uniquely named with TRINITY pre-fix and the second column contains a corresponding cluster number assigned during cd-hit-est).

Merge the concatenated RESULTS.txt file with the cluster_reference_table.txt file using left_join; left_join will see that the RESULTS.txt file already has a column named "VSG" --> will search the column to make sure all VSGs in the cluster reference table appear --> match the assigned cluster number to all identically named VSGs --> and append a column to the right of the table with the matched cluster number.

Here, I filter the SSE0_VSGSeq_RESULTS datatable for VSGs that have make up greater than 1% of the respective technical replicate (eg. 1% of Patient 23 replicate 3) Anything below 1% would imply that the VSG is being expressed by less than 1 parasite which doesn't make sense.

UPDATE: August 2020 After doing a BLAST search of the VSGs detected by VSG-seq, Cluster 803 was determined to be TgsGP. ANOTHER UPDATE: Monica determined old cluster 803 is new cluster 724 double check this* Below is code to remove Cluster 724 from the dataframe, if desired.

SSE0_VSGs_Final <- SSE0_VSGs_Final %>%
  filter(cluster!= "Cluster 724")
SSE0_VSGs_Final

## # A tibble: 185 x 7
##    file   patient_number patient_replicate cluster  Percent RPKM   VSG          
##    <chr>  <chr>          <chr>             <chr>      <dbl> <chr>  <chr>        
##  1 01S_1 1              1                 Cluster   26.1  23115 TRINITY_DN5_
##  2 01S_1 1              1                 Cluster   10.7  94562 TRINITY_DN5_
##  3 01S_1 1              1                 Cluster    9.18 81424 TRINITY_DN64
##  4 01S_1 1              1                 Cluster    8.27 73399 TRINITY_DN90
##  5 01S_1 1              1                 Cluster    8.88 78800 TRINITY_DN15
##  6 01S_1 1              1                 Cluster   12.9  11407 TRINITY_DN92
##  7 01S_1 1              1                 Cluster   23.4  20767 TRINITY_DN4_
##  8 01S_2 1              2                 Cluster    4.69 34911 TRINITY_DN5_
##  9 01S_2 1              2                 Cluster   28.7  21395 TRINITY_DN15
## 10 01S_2 1              2                 Cluster    1.75 13014 TRINITY_DN4_
## #  with 175 more rows
…
## [1] 1112

# Apply our filters, consider the VSGs in SSE0_VSGs_Final_Mergedl which are expressed by at least 1 parasite
SSE0_VSGs_Nterm_final <- SSE0_VSGs_Nterm[SSE0_VSGs_Nterm$cluster %in% SSE0_VSGs_Final_Mergedl$cluster, ]
length(SSE0_VSGs_Nterm_final$VSG)

## [1] 108

merge N-term typing data and patient metadata by VSG

SSE0_VSGs_typedFinal <- full_join(SSE0_VSGs_Final_Mergedl, SSE0_VSGs_Nterm_final, by = "cluster")
SSE0_VSGs_typedFinal

## # A tibble: 185 x 13
##    file   patient_number patient_replica cluster Percent RPKM  VSG.x   location
##    <chr>  <chr>          <chr>            <chr>     <dbl> <chr> <chr>   <chr>   
##  1 01S_1 1              1                Cluste   26.1  2311 TRINIT A       
##  2 01S_1 1              1                Cluste   10.7  9456 TRINIT A       
##  3 01S_1 1              1                Cluste    9.18 8142 TRINIT A       
##  4 01S_1 1              1                Cluste    8.27 7339 TRINIT A       
##  5 01S_1 1              1                Cluste    8.88 7880 TRINIT A       
##  6 01S_1 1              1                Cluste   12.9  1140 TRINIT A       
##  7 01S_1 1              1                Cluste   23.4  2076 TRINIT A       
##  8 01S_2 1              2                Cluste    4.69 3491 TRINIT A       
##  9 01S_2 1              2                Cluste   28.7  2139 TRINIT A       
## 10 01S_2 1              2                Cluste    1.75 1301 TRINIT A       
## #  with 175 more rows, and 5 more variables: VSG.y <chr>,
## #   original_seq_length <int>, nterm_seq_length <int>, HMM_profile <fct>,
## #   nterm_typesubtype <fct>
…
# definitely more B types assembled from the read set. they do not just dominate by being the most highly expressed type

Add N-term type data to the cluster heatmap

Here, I make a heatmap with all 108 clusters and 12 patients.

allpatients_hm = SSE0_VSGs_Final_Mergedl %>% select(file, Percent, cluster)
allpatients_hm_data = allpatients_hm
colnames(allpatients_hm_data) <- c("file", "value", "cluster")
#p1_heatmap.data$file <- unlist(p1_heatmap.data$file)
#allpatients_hm_data <- unique(allpatients_hm_data) #why is this here?
#p1_heatmap.data$value <- unlist(p1_heatmap.data)
allpatients_hm_data

## # A tibble: 185 x 3
##    file     value cluster    
##    <chr>    <dbl> <chr>      
##  1 01S_1.fq 26.1  Cluster 255
##  2 01S_1.fq 10.7  Cluster 40 
##  3 01S_1.fq  9.18 Cluster 987
##  4 01S_1.fq  8.27 Cluster 959
##  5 01S_1.fq  8.88 Cluster 370
##  6 01S_1.fq 12.9  Cluster 60 
##  7 01S_1.fq 23.4  Cluster 452
##  8 01S_2.fq  4.69 Cluster 255
##  9 01S_2.fq 28.7  Cluster 370
## 10 01S_2.fq  1.75 Cluster 452
## #  with 175 more rows
…
